<?xml version='1.0' encoding='utf-8'?>
<gexf version="1.2" xmlns="http://www.gexf.net/1.2draft" xmlns:xsi="http://www.w3.org/2001/XMLSchema-instance" xsi:schemaLocation="http://www.w3.org/2001/XMLSchema-instance">
  <graph defaultedgetype="undirected" mode="static" name="">
    <attributes class="node" mode="static">
      <attribute id="0" title="nombreAutor" type="string" />
      <attribute id="1" title="idAutor" type="long" />
      <attribute id="2" title="tipoNodo" type="string" />
      <attribute id="3" title="betweeness" type="double" />
      <attribute id="4" title="degree" type="double" />
      <attribute id="5" title="pagerank" type="double" />
      <attribute id="6" title="idPais" type="string" />
      <attribute id="7" title="nombre" type="string" />
      <attribute id="8" title="idComisario" type="long" />
      <attribute id="9" title="nombreComisario" type="string" />
    </attributes>
    <meta>
      <creator>NetworkX 2.2</creator>
      <lastmodified>01/06/2019</lastmodified>
    </meta>
    <nodes>
      <node id="15885" label="15885">
        <attvalues>
          <attvalue for="0" value="Milena Rossignoli" />
          <attvalue for="1" value="81581" />
          <attvalue for="2" value="Autor" />
          <attvalue for="3" value="0.0" />
          <attvalue for="4" value="0.06666666666666667" />
          <attvalue for="5" value="0.03569842018473848" />
        </attvalues>
      </node>
      <node id="27724" label="27724">
        <attvalues>
          <attvalue for="6" value="Ecuador" />
          <attvalue for="7" value="Ecuador" />
          <attvalue for="2" value="Pais" />
          <attvalue for="3" value="1.0" />
          <attvalue for="4" value="1.0" />
          <attvalue for="5" value="0.4645236972289224" />
        </attvalues>
      </node>
      <node id="13840" label="13840">
        <attvalues>
          <attvalue for="0" value="Joaquín Pinto" />
          <attvalue for="1" value="53425" />
          <attvalue for="2" value="Autor" />
          <attvalue for="3" value="0.0" />
          <attvalue for="4" value="0.06666666666666667" />
          <attvalue for="5" value="0.03569842018473848" />
        </attvalues>
      </node>
      <node id="7788" label="7788">
        <attvalues>
          <attvalue for="8" value="27151" />
          <attvalue for="9" value="Bernardo Laniado-Romero" />
          <attvalue for="2" value="Comisario" />
          <attvalue for="3" value="0.0" />
          <attvalue for="4" value="0.06666666666666667" />
          <attvalue for="5" value="0.03569842018473848" />
        </attvalues>
      </node>
      <node id="13895" label="13895">
        <attvalues>
          <attvalue for="0" value="Oswaldo Guayasamín" />
          <attvalue for="1" value="53483" />
          <attvalue for="2" value="Autor" />
          <attvalue for="3" value="0.0" />
          <attvalue for="4" value="0.06666666666666667" />
          <attvalue for="5" value="0.03569842018473848" />
        </attvalues>
      </node>
      <node id="13954" label="13954">
        <attvalues>
          <attvalue for="0" value="Galo Galecio Taranto" />
          <attvalue for="1" value="53491" />
          <attvalue for="2" value="Autor" />
          <attvalue for="3" value="0.0" />
          <attvalue for="4" value="0.06666666666666667" />
          <attvalue for="5" value="0.03569842018473848" />
        </attvalues>
      </node>
      <node id="11178" label="11178">
        <attvalues>
          <attvalue for="0" value="Vicente Albán" />
          <attvalue for="1" value="43789" />
          <attvalue for="2" value="Autor" />
          <attvalue for="3" value="0.0" />
          <attvalue for="4" value="0.06666666666666667" />
          <attvalue for="5" value="0.03569842018473848" />
        </attvalues>
      </node>
      <node id="15090" label="15090">
        <attvalues>
          <attvalue for="0" value="María José Argenzio" />
          <attvalue for="1" value="65894" />
          <attvalue for="2" value="Autor" />
          <attvalue for="3" value="0.0" />
          <attvalue for="4" value="0.06666666666666667" />
          <attvalue for="5" value="0.03569842018473848" />
        </attvalues>
      </node>
      <node id="13965" label="13965">
        <attvalues>
          <attvalue for="0" value="Camilo Egas" />
          <attvalue for="1" value="53532" />
          <attvalue for="2" value="Autor" />
          <attvalue for="3" value="0.0" />
          <attvalue for="4" value="0.06666666666666667" />
          <attvalue for="5" value="0.03569842018473848" />
        </attvalues>
      </node>
      <node id="15344" label="15344">
        <attvalues>
          <attvalue for="0" value="Óscar Santillán" />
          <attvalue for="1" value="75960" />
          <attvalue for="2" value="Autor" />
          <attvalue for="3" value="0.0" />
          <attvalue for="4" value="0.06666666666666667" />
          <attvalue for="5" value="0.03569842018473848" />
        </attvalues>
      </node>
      <node id="10484" label="10484">
        <attvalues>
          <attvalue for="8" value="82860" />
          <attvalue for="9" value="Maria del Carmen Carrion" />
          <attvalue for="2" value="Comisario" />
          <attvalue for="3" value="0.0" />
          <attvalue for="4" value="0.06666666666666667" />
          <attvalue for="5" value="0.03569842018473848" />
        </attvalues>
      </node>
      <node id="18935" label="18935">
        <attvalues>
          <attvalue for="0" value="Gabriela Portaluppi" />
          <attvalue for="1" value="84220" />
          <attvalue for="2" value="Autor" />
          <attvalue for="3" value="0.0" />
          <attvalue for="4" value="0.06666666666666667" />
          <attvalue for="5" value="0.03569842018473848" />
        </attvalues>
      </node>
      <node id="13811" label="13811">
        <attvalues>
          <attvalue for="0" value="Rafael Troya" />
          <attvalue for="1" value="53335" />
          <attvalue for="2" value="Autor" />
          <attvalue for="3" value="0.0" />
          <attvalue for="4" value="0.06666666666666667" />
          <attvalue for="5" value="0.03569842018473848" />
        </attvalues>
      </node>
      <node id="15919" label="15919">
        <attvalues>
          <attvalue for="0" value="Omar Chiluisa" />
          <attvalue for="1" value="75973" />
          <attvalue for="2" value="Autor" />
          <attvalue for="3" value="0.0" />
          <attvalue for="4" value="0.06666666666666667" />
          <attvalue for="5" value="0.03569842018473848" />
        </attvalues>
      </node>
      <node id="18598" label="18598">
        <attvalues>
          <attvalue for="8" value="70056" />
          <attvalue for="9" value="Manuela Moscoso" />
          <attvalue for="2" value="Comisario" />
          <attvalue for="3" value="0.0" />
          <attvalue for="4" value="0.06666666666666667" />
          <attvalue for="5" value="0.03569842018473848" />
        </attvalues>
      </node>
      <node id="13807" label="13807">
        <attvalues>
          <attvalue for="0" value="Oswaldo Viteri" />
          <attvalue for="1" value="53324" />
          <attvalue for="2" value="Autor" />
          <attvalue for="3" value="0.0" />
          <attvalue for="4" value="0.06666666666666667" />
          <attvalue for="5" value="0.03569842018473848" />
        </attvalues>
      </node>
    </nodes>
    <edges>
      <edge id="0" source="15885" target="27724" weight="1" />
      <edge id="1" source="27724" target="13840" weight="1" />
      <edge id="2" source="27724" target="7788" weight="1" />
      <edge id="3" source="27724" target="13895" weight="1" />
      <edge id="4" source="27724" target="13954" weight="1" />
      <edge id="5" source="27724" target="11178" weight="1" />
      <edge id="6" source="27724" target="15090" weight="1" />
      <edge id="7" source="27724" target="13965" weight="1" />
      <edge id="8" source="27724" target="15344" weight="1" />
      <edge id="9" source="27724" target="10484" weight="1" />
      <edge id="10" source="27724" target="18935" weight="1" />
      <edge id="11" source="27724" target="13811" weight="1" />
      <edge id="12" source="27724" target="15919" weight="1" />
      <edge id="13" source="27724" target="18598" weight="1" />
      <edge id="14" source="27724" target="13807" weight="1" />
    </edges>
  </graph>
</gexf>
